<svg xmlns="http://www.w3.org/2000/svg" id="Слой_1" viewBox="0 0 625 540">
  <style>
    .st0{fill:#005096;} .st1{fill:#FFFFFF;}
  </style>
  <circle cx="316.7" cy="264.5" r="250" class="st0"/>
  <path d="M254.2 334.8v46.8h125v-78.1h-125v31.3zm15.6-15.6h93.8v15.6h-93.8v-15.6zm0 31.2h93.8V366h-93.8v-15.6zm109.4-156.2v-46.8h-125v78.1h125v-31.3zm0 0" class="st1"/>
  <path d="M410.4 194.2h-15.6v46.9H238.5v-46.9H223c-15.6 0-31.3 15.6-31.3 31.3v78.1c0 15.6 15.6 31.3 31.3 31.3h15.5V288h156.2v46.9h15.6c15.6 0 31.3-15.6 31.3-31.3v-78.1c.1-15.7-15.5-31.3-31.2-31.3zm0 0" class="st1"/>
</svg>
